%YAML 1.1
%TAG !u! tag:unity3d.com,2011:
--- !u!1 &7075566689925690928
GameObject:
  m_ObjectHideFlags: 0
  m_CorrespondingSourceObject: {fileID: 0}
  m_PrefabInstance: {fileID: 0}
  m_PrefabAsset: {fileID: 0}
  serializedVersion: 6
  m_Component:
  - component: {fileID: 4915899997918970868}
  - component: {fileID: 5667343975857960515}
  - component: {fileID: 3892263555933613635}
  - component: {fileID: 4656143433830558204}
  m_Layer: 0
  m_Name: WinterBrazier_Blue
  m_TagString: Untagged
  m_Icon: {fileID: 0}
  m_NavMeshLayer: 0
  m_StaticEditorFlags: 0
  m_IsActive: 1
--- !u!4 &4915899997918970868
Transform:
  m_ObjectHideFlags: 0
  m_CorrespondingSourceObject: {fileID: 0}
  m_PrefabInstance: {fileID: 0}
  m_PrefabAsset: {fileID: 0}
  m_GameObject: {fileID: 7075566689925690928}
  m_LocalRotation: {x: 0, y: -0, z: -0, w: 1}
  m_LocalPosition: {x: 37.419342, y: 22.545904, z: -1.6193714}
  m_LocalScale: {x: 1, y: 1, z: 1}
  m_Children:
  - {fileID: 6742087129217257448}
  m_Father: {fileID: 0}
  m_RootOrder: 0
  m_LocalEulerAnglesHint: {x: 0, y: 0, z: 0}
--- !u!33 &5667343975857960515
MeshFilter:
  m_ObjectHideFlags: 0
  m_CorrespondingSourceObject: {fileID: 0}
  m_PrefabInstance: {fileID: 0}
  m_PrefabAsset: {fileID: 0}
  m_GameObject: {fileID: 7075566689925690928}
  m_Mesh: {fileID: 4300000, guid: 4156a4f102566af40af7101768132060, type: 3}
--- !u!23 &3892263555933613635
MeshRenderer:
  m_ObjectHideFlags: 0
  m_CorrespondingSourceObject: {fileID: 0}
  m_PrefabInstance: {fileID: 0}
  m_PrefabAsset: {fileID: 0}
  m_GameObject: {fileID: 7075566689925690928}
  m_Enabled: 1
  m_CastShadows: 1
  m_ReceiveShadows: 1
  m_DynamicOccludee: 1
  m_MotionVectors: 1
  m_LightProbeUsage: 1
  m_ReflectionProbeUsage: 1
  m_RayTracingMode: 2
  m_RayTraceProcedural: 0
  m_RenderingLayerMask: 1
  m_RendererPriority: 0
  m_Materials:
  - {fileID: 2100000, guid: d48fde4f6910c39499e7227696d40269, type: 2}
  m_StaticBatchInfo:
    firstSubMesh: 0
    subMeshCount: 0
  m_StaticBatchRoot: {fileID: 0}
  m_ProbeAnchor: {fileID: 0}
  m_LightProbeVolumeOverride: {fileID: 0}
  m_ScaleInLightmap: 1
  m_ReceiveGI: 1
  m_PreserveUVs: 0
  m_IgnoreNormalsForChartDetection: 0
  m_ImportantGI: 0
  m_StitchLightmapSeams: 0
  m_SelectedEditorRenderState: 3
  m_MinimumChartSize: 4
  m_AutoUVMaxDistance: 0.5
  m_AutoUVMaxAngle: 89
  m_LightmapParameters: {fileID: 0}
  m_SortingLayerID: 0
  m_SortingLayer: 0
  m_SortingOrder: 0
  m_AdditionalVertexStreams: {fileID: 0}
--- !u!65 &4656143433830558204
BoxCollider:
  m_ObjectHideFlags: 0
  m_CorrespondingSourceObject: {fileID: 0}
  m_PrefabInstance: {fileID: 0}
  m_PrefabAsset: {fileID: 0}
  m_GameObject: {fileID: 7075566689925690928}
  m_Material: {fileID: 0}
  m_IsTrigger: 0
  m_Enabled: 1
  serializedVersion: 2
  m_Size: {x: 1.9016799, y: 1.5198748, z: 1.9016799}
  m_Center: {x: -0.0000009536743, y: 0.029160112, z: -0.00000035762787}
--- !u!1001 &3100452883255706443
PrefabInstance:
  m_ObjectHideFlags: 0
  serializedVersion: 2
  m_Modification:
    m_TransformParent: {fileID: 4915899997918970868}
    m_Modifications:
    - target: {fileID: 8153874071534877202, guid: 4a8fc365f726ad54693945c87f027798,
        type: 3}
      propertyPath: m_Name
      value: Fire&Smoke
      objectReference: {fileID: 0}
    - target: {fileID: 8545494521112202403, guid: 4a8fc365f726ad54693945c87f027798,
        type: 3}
      propertyPath: m_RootOrder
      value: 0
      objectReference: {fileID: 0}
    - target: {fileID: 8545494521112202403, guid: 4a8fc365f726ad54693945c87f027798,
        type: 3}
      propertyPath: m_LocalPosition.x
      value: 0
      objectReference: {fileID: 0}
    - target: {fileID: 8545494521112202403, guid: 4a8fc365f726ad54693945c87f027798,
        type: 3}
      propertyPath: m_LocalPosition.y
      value: 0
      objectReference: {fileID: 0}
    - target: {fileID: 8545494521112202403, guid: 4a8fc365f726ad54693945c87f027798,
        type: 3}
      propertyPath: m_LocalPosition.z
      value: 0
      objectReference: {fileID: 0}
    - target: {fileID: 8545494521112202403, guid: 4a8fc365f726ad54693945c87f027798,
        type: 3}
      propertyPath: m_LocalRotation.w
      value: 1
      objectReference: {fileID: 0}
    - target: {fileID: 8545494521112202403, guid: 4a8fc365f726ad54693945c87f027798,
        type: 3}
      propertyPath: m_LocalRotation.x
      value: 0
      objectReference: {fileID: 0}
    - target: {fileID: 8545494521112202403, guid: 4a8fc365f726ad54693945c87f027798,
        type: 3}
      propertyPath: m_LocalRotation.y
      value: 0
      objectReference: {fileID: 0}
    - target: {fileID: 8545494521112202403, guid: 4a8fc365f726ad54693945c87f027798,
        type: 3}
      propertyPath: m_LocalRotation.z
      value: 0
      objectReference: {fileID: 0}
    - target: {fileID: 8545494521112202403, guid: 4a8fc365f726ad54693945c87f027798,
        type: 3}
      propertyPath: m_LocalEulerAnglesHint.x
      value: 0
      objectReference: {fileID: 0}
    - target: {fileID: 8545494521112202403, guid: 4a8fc365f726ad54693945c87f027798,
        type: 3}
      propertyPath: m_LocalEulerAnglesHint.y
      value: 0
      objectReference: {fileID: 0}
    - target: {fileID: 8545494521112202403, guid: 4a8fc365f726ad54693945c87f027798,
        type: 3}
      propertyPath: m_LocalEulerAnglesHint.z
      value: 0
      objectReference: {fileID: 0}
    m_RemovedComponents: []
  m_SourcePrefab: {fileID: 100100000, guid: 4a8fc365f726ad54693945c87f027798, type: 3}
--- !u!4 &6742087129217257448 stripped
Transform:
  m_CorrespondingSourceObject: {fileID: 8545494521112202403, guid: 4a8fc365f726ad54693945c87f027798,
    type: 3}
  m_PrefabInstance: {fileID: 3100452883255706443}
  m_PrefabAsset: {fileID: 0}
